…
      Haplotyping was performed with hetphenos = F, meaning phenotype association scores for heterozygous sites was ignored.
      ✔ Haplotyping complete!
      Info saved in Haplotypes_30_E objects
      # A tibble: 29 x 11
              x     y node    MGs_eps cluster  size mean_na.rm_phenodiff sc3_stability
       *  <dbl> <dbl> <chr>   <fct>   <fct>   <int>                <dbl>         <dbl>
       1 -4.39      2 MGs_ep~ 0.39    0        1487                 2.60        0.0350
       2 -2.39      2 MGs_ep~ 0.39    MG1        36                 2.71        0.151 
       3  0.111     2 MGs_ep~ 0.39    MG2        49                 2.64        0.205 
       4  2.11      2 MGs_ep~ 0.39    MG3        28                 2.68        0.117 
       5  4.11      2 MGs_ep~ 0.39    MG4        55                 2.38        0.493 
       6  6.11      2 MGs_ep~ 0.39    MG5        33                 2.56        0.509 
       7  8.11      2 MGs_ep~ 0.39    MG6        37                 1.25        0.549 
       8 10.1       2 MGs_ep~ 0.39    MG7        32                 4.39        0.627 
       9 12.1       2 MGs_ep~ 0.39    MG8       284                 2.15        0.514 
      10 -5.89      1 MGs_ep~ 0.79    0        1211                 2.67        0.279 
      # i 19 more rows
      # i 3 more variables: .ggraph.orig_index <int>, circular <lgl>,
      #   .ggraph.index <int>
…
